508974 60542 449
14851 593320 470
95306 587949 470
290948 762602 509
200787 346363 443
396885 5793 443
787512 648496 504
912905 251440 525
882330 309438 525
916256 494017 525
54815 632070 509
567653 418407 470
413271 768243 509
911802 994397 507
370480 836056 509
844869 10904 525
496191 949785 525
260074 594490 470
715608 996799 525
874105 453796 525
388529 705499 509
427839 999986 525
327474 830402 509
490820 924365 525
513754 284741 470
392827 679006 509
114490 783828 509
306898 649325 509
271488 62332 443
868261 259050 525
874094 887282 445
765110 535315 509
152372 550763 470
272458 416077 449
49011 590181 470
792873 518461 509
915313 192404 525
970944 937897 507
359300 757634 509
758648 872723 525
706728 685012 504
695494 42927 509
968968 318280 525
36192 12204 324
285121 907129 525
516312 185136 470
768510 912836 525
178489 330608 443
311491 198753 443
22983 848674 525
374021 482187 449
845535 426109 525
981663 483865 525
661734 962365 525
751253 956987 525
651563 737658 504
853017 903180 445
994813 997082 365
73035 310683 443
487391 755530 509
239235 128092 443
410282 311304 449
175297 621158 470
700151 407187 509
480621 565049 470
174336 12466 383
75959 224168 386
25057 402972 443
954168 839275 507
571006 638431 509
601234 350815 470
970117 161114 525
413630 734953 509
458546 176131 449
707891 243722 509
90233 836081 509
268664 229515 443
127132 17470 354
50383 342261 443
824724 729531 468
67593 519078 470
714109 196054 509
556947 406119 470
353229 826536 509
778307 193010 509
595929 796668 509
365313 531772 470
459446 449052 387
557240 762264 509
87639 702286 509
498526 298976 449
566386 660651 509
247040 720457 509
563642 41942 470
220184 12565 386
878260 948446 507
172511 487133 449
496698 67745 449
61464 204386 383
900605 405735 525
90324 212683 383
442597 726438 509
533221 486038 470
712491 571069 509
78451 425216 449
635034 820127 504
235895 292732 407
271548 618126 470
733163 224077 509
346884 57345 443
437541 783693 509
717282 893286 525
614267 133446 470
152667 394808 443
82479 918588 525
347109 258462 441
534589 938655 525
711624 977006 525
525185 963655 525
985773 669594 525
776320 953742 525
351757 404104 436
154333 326010 443
861726 806498 525
779436 864876 525
41294 838317 525
248835 575433 470
721153 949362 525
965572 725500 525
864194 494889 525
113504 849784 525
680474 968269 525
315543 372883 441
300451 542279 470
911619 335767 525
920694 283580 525
89253 492165 449
95377 266605 443
68490 17050 340
560354 755995 509
385910 11475 443
239265 85676 443
383486 710069 509
106711 6228 354
897429 636521 525
450426 141313 449
851386 805852 525
278739 729796 509
939097 715506 525
715765 749122 424
274957 565999 470
892610 174528 525
304467 235051 407
460509 430221 400
169208 995752 525
424033 867011 525
866955 506534 525
872980 847677 432
898329 884861 445
140643 853036 525
741501 225875 509
488615 660246 509
947355 401306 525
988868 599341 525
310242 982877 525
610251 260143 470
424539 839153 525
584443 252331 470
737361 456329 509
521160 788346 509
189374 276181 443
654825 14479 509
297309 81418 443
710500 250361 509
182428 327241 443
608007 57031 470
850272 664120 525
610001 340534 470
541824 598658 452
370421 254582 441
175923 504438 449
278259 182784 443
26737 260034 443
413023 187790 449
716664 437431 509
147837 301987 443
481722 761037 509
448414 571644 470
740946 691567 504
425741 394128 449
371359 251394 441
16431 399635 443
880848 173685 525
975984 830062 525
310928 956216 525
850723 440173 525
863950 880855 432
251077 41898 443
377976 963363 525
725165 154240 509
510858 932931 525
915755 810772 525
779132 919109 525
5549 990322 525
15770 398224 443
217818 939479 525
11293 972753 525
713963 191383 509
140760 97660 354
726344 547862 509
620843 661118 509
398403 416441 449
487458 471730 413
68801 762031 509
270516 261979 407
683961 366091 509
898621 752168 525
242536 186717 443
12968 927655 525
625787 876879 525
940643 416363 525
509316 110431 449
419249 537674 470
391402 783573 509
537820 852378 525
255293 932926 525
561509 613301 434
499188 319404 449
228119 864371 525
210132 673546 509
335231 558388 470
719923 72926 509
98775 586519 470
318013 410570 449
771933 798355 468
131741 215896 383
542182 527686 408
921456 331762 525
920223 218292 525
275314 263370 407
38931 649954 509
543003 910821 525
250461 921477 525
354849 56692 443
17106 240382 443
566406 839394 525
389108 658791 509
755936 318593 509
169650 907441 525
754105 702530 504
899968 845637 445
580855 112454 470
523404 197773 470
984516 185753 525
392390 540033 470
473799 236407 449
772138 415924 509
817346 778158 468
284545 93987 443
739437 968987 525
842893 689641 525
992197 932809 507
250256 840146 525
998445 765324 525
273742 605149 470
219757 69596 386
136798 157590 383
119888 955969 525
462807 1639 449
347447 514767 470
336151 314034 384
437132 690349 509
190320 637286 509
681071 708896 504
736907 490341 509
143237 705861 509
324336 906000 525
593770 291333 470
946501 353694 525
374220 467754 449
851014 752590 525
410777 340491 449
8344 404454 443
576028 363910 470
295159 315073 384
195029 407443 443
32657 280389 443
617790 749583 509
288705 666841 509
83239 577710 470
178417 536792 470
253846 443856 449
850916 924744 476
662872 704190 442
486652 398246 449
621069 145741 470
170826 325016 443
494235 785766 509
154874 708064 509
